<?xml version="1.0" encoding="UTF-8" standalone="no"?>
<!-- Created with Inkscape (http://www.inkscape.org/) -->

<svg
   width="150"
   height="150"
   viewBox="0 0 39.687501 39.6875"
   version="1.1"
   id="svg876"
   inkscape:version="1.1 (c4e8f9e, 2021-05-24)"
   sodipodi:docname="landing_wheel_wheel.svg"
   inkscape:export-filename=""
   inkscape:export-xdpi="256"
   inkscape:export-ydpi="256"
   xmlns:inkscape="http://www.inkscape.org/namespaces/inkscape"
   xmlns:sodipodi="http://sodipodi.sourceforge.net/DTD/sodipodi-0.dtd"
   xmlns="http://www.w3.org/2000/svg"
   xmlns:svg="http://www.w3.org/2000/svg">
  <sodipodi:namedview
     id="namedview878"
     pagecolor="#ffffff"
     bordercolor="#666666"
     borderopacity="1.0"
     inkscape:pageshadow="2"
     inkscape:pageopacity="0.0"
     inkscape:pagecheckerboard="0"
     inkscape:document-units="px"
     showgrid="false"
     fit-margin-top="0"
     fit-margin-left="0"
     fit-margin-right="0"
     fit-margin-bottom="0"
     inkscape:zoom="2.0560856"
     inkscape:cx="25.533957"
     inkscape:cy="123.77889"
     inkscape:window-width="1787"
     inkscape:window-height="932"
     inkscape:window-x="0"
     inkscape:window-y="0"
     inkscape:window-maximized="1"
     inkscape:current-layer="layer1"
     units="px"
     height="150px" />
  <defs
     id="defs873">
    <linearGradient
       id="p.6"
       gradientUnits="userSpaceOnUse"
       gradientTransform="matrix(2.055366,0,0,-2.055366,-37.663595,126.96658)"
       spreadMethod="pad"
       x1="-16.360743"
       y1="11.492983"
       x2="-16.360771"
       y2="19.261295">
      <stop
         offset="0.0"
         stop-color="#8c8c8c"
         id="stop66" />
      <stop
         offset="1.0"
         stop-color="#404040"
         id="stop68" />
    </linearGradient>
    <linearGradient
       id="p.7"
       gradientUnits="userSpaceOnUse"
       gradientTransform="matrix(-0.98159786,0,0,-0.98159786,-37.663595,126.96658)"
       spreadMethod="pad"
       x1="29.183062"
       y1="36.725407"
       x2="29.183048"
       y2="40.435383">
      <stop
         offset="0.0"
         stop-color="#8c8c8c"
         id="stop77" />
      <stop
         offset="1.0"
         stop-color="#404040"
         id="stop79" />
    </linearGradient>
    <linearGradient
       id="p.10"
       gradientUnits="userSpaceOnUse"
       gradientTransform="matrix(0.98159786,0,0,-0.98159786,-37.663595,126.86556)"
       spreadMethod="pad"
       x1="-11.248482"
       y1="36.622494"
       x2="-11.248495"
       y2="40.33247">
      <stop
         offset="0.0"
         stop-color="#8c8c8c"
         id="stop110" />
      <stop
         offset="1.0"
         stop-color="#404040"
         id="stop112" />
    </linearGradient>
    <linearGradient
       id="p.9"
       gradientUnits="userSpaceOnUse"
       gradientTransform="matrix(-2.055366,0,0,-2.055366,-37.663595,126.96658)"
       spreadMethod="pad"
       x1="2.948478"
       y1="11.443832"
       x2="2.9484501"
       y2="19.212145">
      <stop
         offset="0.0"
         stop-color="#8c8c8c"
         id="stop99" />
      <stop
         offset="1.0"
         stop-color="#404040"
         id="stop101" />
    </linearGradient>
  </defs>
  <g
     inkscape:label="Layer 1"
     inkscape:groupmode="layer"
     id="layer1"
     transform="translate(77.351101,-63.596669)">
    <path
       fill="url(#p.6)"
       d="m -68.799203,103.34428 v 0 0 c 0.660831,0 1.294598,-0.26252 1.761876,-0.7298 0.467278,-0.46727 0.729793,-1.10104 0.729793,-1.76187 V 87.377609 c 0,-2.4e-5 -2.2e-5,-4e-5 -4.3e-5,-4e-5 l -4.983292,4e-5 v 0 c -2.1e-5,0 -4.2e-5,2.1e-5 -4.2e-5,3.9e-5 l 4.2e-5,13.474962 v 0 c 0,1.37611 1.115558,2.49167 2.491666,2.49167 z"
       fill-rule="evenodd"
       id="path73"
       style="fill:url(#p.6);stroke:none;stroke-width:0.264583"
       inkscape:export-filename=""
       inkscape:export-xdpi="256"
       inkscape:export-ydpi="256" />
    <path
       fill="url(#p.9)"
       d="m -46.215505,103.4453 v 0 0 c -0.66083,0 -1.294596,-0.26252 -1.761874,-0.72979 -0.467278,-0.46728 -0.729792,-1.10105 -0.729792,-1.76188 V 87.478632 c 0,-2.4e-5 1.8e-5,-4e-5 4.1e-5,-4e-5 l 4.983292,4e-5 v 0 c 2.3e-5,0 4.1e-5,2.1e-5 4.1e-5,4e-5 l -4.1e-5,13.474958 v 0 c 0,1.37611 -1.115557,2.49167 -2.491667,2.49167 z"
       fill-rule="evenodd"
       id="path106"
       style="fill:url(#p.9);stroke:none;stroke-width:0.264583"
       inkscape:export-filename=""
       inkscape:export-xdpi="256"
       inkscape:export-ydpi="256" />
    <g
       id="g2504"
       transform="translate(31.771411,-10.309077)">
      <ellipse
         style="fill:#bc9273;fill-opacity:1;stroke:#806450;stroke-width:2.64583;stroke-miterlimit:4;stroke-dasharray:none;stroke-opacity:1;stop-color:#000000"
         id="path2186"
         cx="-89.278763"
         cy="93.749496"
         rx="18.520834"
         ry="18.520836" />
      <circle
         style="fill:#806450;fill-opacity:1;stroke:none;stroke-width:0.487728;stroke-miterlimit:4;stroke-dasharray:none;stroke-opacity:1;stop-color:#000000"
         id="path2366"
         cx="-89.278763"
         cy="93.749496"
         r="6.6145835" />
    </g>
  </g>
</svg>
