<?xml version="1.0" encoding="UTF-8" standalone="no"?>
<svg
   xmlns:dc="http://purl.org/dc/elements/1.1/"
   xmlns:cc="http://creativecommons.org/ns#"
   xmlns:rdf="http://www.w3.org/1999/02/22-rdf-syntax-ns#"
   xmlns:svg="http://www.w3.org/2000/svg"
   xmlns="http://www.w3.org/2000/svg"
   xmlns:xlink="http://www.w3.org/1999/xlink"
   xmlns:sodipodi="http://sodipodi.sourceforge.net/DTD/sodipodi-0.dtd"
   xmlns:inkscape="http://www.inkscape.org/namespaces/inkscape"
   viewBox="0 0 187.81415 178.47615"
   height="47.221813mm"
   width="49.692493mm"
   id="svg2"
   version="1.1"
   sodipodi:docname="starguide_core.svg"
   inkscape:version="1.0 (4035a4fb49, 2020-05-01)"
   inkscape:export-filename=""
   inkscape:export-xdpi="79.781677"
   inkscape:export-ydpi="79.781677">
  <sodipodi:namedview
     inkscape:snap-global="false"
     units="mm"
     inkscape:document-rotation="0"
     pagecolor="#ffffff"
     bordercolor="#666666"
     borderopacity="1"
     objecttolerance="10"
     gridtolerance="10"
     guidetolerance="10"
     inkscape:pageopacity="0"
     inkscape:pageshadow="2"
     inkscape:window-width="1920"
     inkscape:window-height="1002"
     id="namedview32"
     showgrid="false"
     inkscape:zoom="4.1540295"
     inkscape:cx="121.86307"
     inkscape:cy="99.950128"
     inkscape:window-x="-8"
     inkscape:window-y="42"
     inkscape:window-maximized="1"
     inkscape:current-layer="g10"
     fit-margin-top="0"
     fit-margin-left="0"
     fit-margin-right="0"
     fit-margin-bottom="0" />
  <metadata
     id="metadata8">
    <rdf:RDF>
      <cc:Work
         rdf:about="">
        <dc:format>image/svg+xml</dc:format>
        <dc:type
           rdf:resource="http://purl.org/dc/dcmitype/StillImage" />
        <dc:title></dc:title>
      </cc:Work>
    </rdf:RDF>
  </metadata>
  <defs
     id="defs6">
    <linearGradient
       id="linearGradient901">
      <stop
         id="stop899"
         offset="0"
         style="stop-color:#ffffff;stop-opacity:1" />
      <stop
         id="stop897"
         offset="1"
         style="stop-color:#000000;stop-opacity:1" />
    </linearGradient>
    <mask
       maskUnits="userSpaceOnUse"
       id="mask914">
      <path
         id="path916"
         style="fill:url(#radialGradient918);fill-opacity:1;stroke:none;stroke-width:1px;stroke-linecap:butt;stroke-linejoin:miter;stroke-opacity:1"
         d="m 64.193832,41.959638 c -10.473281,0.101166 -19.163811,6.442978 -22.97829,15.277894 -6.032528,15.263336 -8.718134,35.32294 10.146541,47.325618 24.788123,14.12729 39.861139,26.79375 45.665501,38.59277 5.804356,-11.79902 20.874946,-24.4655 45.663076,-38.59277 C 161.55533,92.560472 158.86973,72.500868 152.83719,57.237532 145.30587,39.793816 118.77349,32.093788 97.027584,62.939064 86.295333,47.715389 74.399351,41.861061 64.193832,41.959638 Z" />
    </mask>
    <radialGradient
       xlink:href="#linearGradient901"
       id="radialGradient918"
       gradientUnits="userSpaceOnUse"
       gradientTransform="matrix(-0.85263446,0.35008832,-0.31875899,-0.77633583,207.8126,114.82934)"
       cx="97.877579"
       cy="83.075974"
       fx="97.877579"
       fy="83.075974"
       r="60.291977" />
  </defs>
  <g
     id="g10"
     transform="translate(-3.1619932,-3.3677966)">
    <image
       sodipodi:absref=""
       xlink:href="../../glap-io-client/static/user.png"
       width="192.64"
       height="184.64"
       preserveAspectRatio="none"
       style="font-variation-settings:normal;display:none;opacity:1;vector-effect:none;fill:#fefe00;fill-opacity:1;stroke:none;stroke-width:1px;stroke-linecap:butt;stroke-linejoin:miter;stroke-miterlimit:4;stroke-dasharray:none;stroke-dashoffset:0;stroke-opacity:1;image-rendering:optimizeSpeed;stop-color:#000000;stop-opacity:1"
       id="image12" />
    <path
       id="path855"
       d="m 47.544198,5.8677966 h 99.180812 v 5.4766104 h 39.81074 l -19.43896,32.047197 h 16.58029 v 98.578986 h -16.33956 l 19.13805,32.10738 h -39.90102 v 5.26597 H 47.694654 v -5.35625 H 8.3352803 L 26.931682,142.03077 H 10.426091 V 43.54206 h 16.71623 L 7.6130899,11.494863 H 47.514107 Z"
       style="fill:none;fill-opacity:1;stroke:#dd55ff;stroke-width:5;stroke-linecap:butt;stroke-linejoin:miter;stroke-miterlimit:4;stroke-dasharray:none;stroke-opacity:1" />
    <g
       transform="matrix(1,0,0,0.93571795,4,5.9649366)"
       style="fill:#dd55ff;fill-opacity:1;stroke-width:1.03378"
       id="g870">
      <path
         style="fill:#dd55ff;fill-opacity:1;stroke:none;stroke-width:1.03378px;stroke-linecap:butt;stroke-linejoin:miter;stroke-opacity:1"
         d="M 28.767249,54.525371 V 70.052464 L 11.133768,85.218461 v -15.46691 z"
         id="path858" />
      <path
         id="path860"
         d="m 28.767249,86.527088 v 15.527092 l -17.633481,15.166 v -15.46691 z"
         style="fill:#dd55ff;fill-opacity:1;stroke:none;stroke-width:1.03378px;stroke-linecap:butt;stroke-linejoin:miter;stroke-opacity:1" />
      <path
         style="fill:#dd55ff;fill-opacity:1;stroke:none;stroke-width:1.03378px;stroke-linecap:butt;stroke-linejoin:miter;stroke-opacity:1"
         d="M 21.533611,43.878 11.133768,52.876303 V 43.878 Z"
         id="path862" />
      <path
         style="fill:#dd55ff;fill-opacity:1;stroke:none;stroke-width:1.03378px;stroke-linecap:butt;stroke-linejoin:miter;stroke-opacity:1"
         d="m 28.767249,118.69903 v 15.52709 l -8.234624,7.08188 h -9.398857 v -7.38279 z"
         id="path864" />
    </g>
    <g
       transform="matrix(1,0,0,0.93345026,-4.2836592,6.3191269)"
       style="fill:#dd55ff;fill-opacity:1;stroke-width:1.03503"
       id="g917">
      <path
         style="display:inline;fill:#dd55ff;fill-opacity:1;stroke:none;stroke-width:1.03503px;stroke-linecap:butt;stroke-linejoin:miter;stroke-opacity:1"
         d="M 183.22571,49.971146 V 66.736557 L 165.59223,83.112074 V 66.411646 Z"
         id="path858-3" />
      <path
         id="path907"
         d="M 183.22571,83.914092 V 100.6795 l -17.63348,16.37552 v -16.70043 z"
         style="display:inline;fill:#dd55ff;fill-opacity:1;stroke:none;stroke-width:1.03503px;stroke-linecap:butt;stroke-linejoin:miter;stroke-opacity:1" />
      <path
         style="display:inline;fill:#dd55ff;fill-opacity:1;stroke:none;stroke-width:1.03503px;stroke-linecap:butt;stroke-linejoin:miter;stroke-opacity:1"
         d="m 183.22571,117.85704 v 16.76541 l -7.16087,6.64955 h -10.47261 v -6.97446 z"
         id="path909" />
      <path
         id="path911"
         d="m 171.06556,43.605 -5.47333,5.082667 V 43.605 Z"
         style="display:inline;fill:#dd55ff;fill-opacity:1;stroke:none;stroke-width:1.03503px;stroke-linecap:butt;stroke-linejoin:miter;stroke-opacity:1" />
    </g>
    <g
       style="stroke-width:1.034"
       transform="matrix(0.93532024,0,0,1,6.2847472,-4)"
       id="g2228">
      <path
         id="path885"
         d="M 56.330848,160.98827 H 76.311447 L 56.451213,178.56156 H 48.326571 V 168.14999 Z"
         style="fill:#dd55ff;fill-opacity:1;stroke:none;stroke-width:1.034px;stroke-linecap:butt;stroke-linejoin:miter;stroke-opacity:1" />
      <path
         id="path887"
         d="M 95.329127,161.16881 H 115.85137 L 96.051317,178.50138 H 75.89017 Z"
         style="fill:#dd55ff;fill-opacity:1;stroke:none;stroke-width:1.034px;stroke-linecap:butt;stroke-linejoin:miter;stroke-opacity:1" />
      <path
         style="fill:#dd55ff;fill-opacity:1;stroke:none;stroke-width:1.034px;stroke-linecap:butt;stroke-linejoin:miter;stroke-opacity:1"
         d="M 135.24616,161.16881 H 145.798 v 8.72799 l -9.82965,8.60458 h -20.16114 z"
         id="path889" />
    </g>
    <g
       style="stroke-width:1.03481"
       transform="matrix(0.93385328,0,0,1,6.4197628,4)"
       id="g2223">
      <path
         id="path845"
         d="m 145.88245,16.67056 v 7.703364 h -8.84684 z"
         style="fill:#dd55ff;fill-opacity:1;stroke:none;stroke-width:1.03481px;stroke-linecap:butt;stroke-linejoin:miter;stroke-opacity:1" />
      <path
         id="path847"
         d="M 117.95775,24.193376 H 100.44464 L 120.12432,6.7404431 h 17.33257 z"
         style="fill:#dd55ff;fill-opacity:1;stroke:none;stroke-width:1.03481px;stroke-linecap:butt;stroke-linejoin:miter;stroke-opacity:1" />
      <path
         id="path849"
         d="M 81.366777,24.133193 H 63.552749 L 83.533348,6.5598955 h 17.212202 z"
         style="font-variation-settings:normal;opacity:1;vector-effect:none;fill:#dd55ff;fill-opacity:1;stroke:none;stroke-width:1.03481px;stroke-linecap:butt;stroke-linejoin:miter;stroke-miterlimit:4;stroke-dasharray:none;stroke-dashoffset:0;stroke-opacity:1;stop-color:#000000;stop-opacity:1" />
      <path
         id="path879"
         d="M 48.257907,20.384072 V 6.5535429 h 15.660414 z"
         style="font-variation-settings:normal;opacity:1;vector-effect:none;fill:#dd55ff;fill-opacity:1;stroke:none;stroke-width:1.03481px;stroke-linecap:butt;stroke-linejoin:miter;stroke-miterlimit:4;stroke-dasharray:none;stroke-dashoffset:0;stroke-opacity:1;stop-color:#000000;stop-opacity:1" />
    </g>
    <path
       id="path886"
       style="fill:#dd55ff;fill-opacity:1;stroke:none;stroke-width:1px;stroke-linecap:butt;stroke-linejoin:miter;stroke-opacity:1"
       d="m 70.589844,55.066406 c -8.43301,0.07496 -15.430562,4.773991 -18.501953,11.320313 -4.857348,11.309526 -7.019779,26.172896 8.169921,35.066401 19.959218,10.46776 32.095902,19.85311 36.769532,28.59571 4.673626,-8.7426 16.808356,-18.12796 36.767576,-28.59571 15.1897,-8.893505 13.02727,-23.756875 8.16992,-35.066401 C 135.90067,53.461618 114.53699,47.756203 97.027344,70.611328 88.385813,59.331189 78.807254,54.993365 70.589844,55.066406 Z" />
  </g>
</svg>
